…
  - Subset rows with `filter()`, where `continent` is “Americas” or
    “Europe”.

<!-- end list -->

``` r
continents <- c("________", "______")
_________ %>% ______(continent %in% continents)
```

    #> # A tibble: 660 x 6
    #>    country continent  year lifeExp     pop gdpPercap
    #>    <chr>   <chr>     <dbl>   <dbl>   <dbl>     <dbl>
    #>  1 Albania Europe     1952    55.2 1282697     1601.
    #>  2 Albania Europe     1957    59.3 1476505     1942.
    #>  3 Albania Europe     1962    64.8 1728137     2313.
    #>  4 Albania Europe     1967    66.2 1984060     2760.
    #>  5 Albania Europe     1972    67.7 2263554     3313.
    #>  6 Albania Europe     1977    68.9 2509048     3533.
    #>  7 Albania Europe     1982    70.4 2780097     3631.
    #>  8 Albania Europe     1987    72   3075321     3739.
    #>  9 Albania Europe     1992    71.6 3326498     2497.
    #> 10 Albania Europe     1997    73.0 3428038     3193.
    #> # … with 650 more rows
…
  - Assign the result to `filtered`.

<!-- end list -->

``` r
continents <- params$continent

filtered <- _________ %>% 
  ______(continent %in% continents)

filtered
```

    #> # A tibble: 1,704 x 6
    #>    country     continent  year lifeExp      pop gdpPercap
    #>    <chr>       <chr>     <dbl>   <dbl>    <dbl>     <dbl>
    #>  1 Afghanistan Asia       1952    28.8  8425333      779.
    #>  2 Afghanistan Asia       1957    30.3  9240934      821.
    #>  3 Afghanistan Asia       1962    32.0 10267083      853.
    #>  4 Afghanistan Asia       1967    34.0 11537966      836.
    #>  5 Afghanistan Asia       1972    36.1 13079460      740.
    #>  6 Afghanistan Asia       1977    38.4 14880372      786.
    #>  7 Afghanistan Asia       1982    39.9 12881816      978.
    #>  8 Afghanistan Asia       1987    40.8 13867957      852.
    #>  9 Afghanistan Asia       1992    41.7 16317921      649.
    #> 10 Afghanistan Asia       1997    41.8 22227415      635.
    #> # … with 1,694 more rows
…
``` r
subset_cols <- gapminder %>% 
  select(continent, lifeExp, year) %>% 
  # Returns invisible.
  glimpse() %>% 
  filter(year >= 1980)
#> Rows: 1,704
#> Columns: 3
#> $ continent <chr> "Asia", "Asia", "Asia", "Asia", "Asia", "Asia", "Asia", "As…
#> $ lifeExp   <dbl> 28.801, 30.332, 31.997, 34.020, 36.088, 38.438, 39.854, 40.…
#> $ year      <dbl> 1952, 1957, 1962, 1967, 1972, 1977, 1982, 1987, 1992, 1997,…

subset_cols
#> # A tibble: 852 x 3
#>    continent lifeExp  year
#>    <chr>       <dbl> <dbl>
#>  1 Asia         39.9  1982
#>  2 Asia         40.8  1987
#>  3 Asia         41.7  1992
#>  4 Asia         41.8  1997
#>  5 Asia         42.1  2002
#>  6 Asia         43.8  2007
#>  7 Europe       70.4  1982
#>  8 Europe       72    1987
#>  9 Europe       71.6  1992
#> 10 Europe       73.0  1997
#> # … with 842 more rows
```
…
