…
``` r
paths <- dir_ls(here("data", "by-continent"))
paths
#> /home/rstudio/tidy-ds/data/by-continent/africa.csv
#> /home/rstudio/tidy-ds/data/by-continent/americas.csv
#> /home/rstudio/tidy-ds/data/by-continent/asia.csv
#> /home/rstudio/tidy-ds/data/by-continent/europe.csv
#> /home/rstudio/tidy-ds/data/by-continent/oceania.csv
```

You can use `map_df()` to interactively call `read_csv()` on each path.

``` r
paths %>% map_df(read_csv)
#> # A tibble: 142 x 38
#>    continent country gdpPercap_1952 gdpPercap_1957 gdpPercap_1962 gdpPercap_1967
#>    <chr>     <chr>            <dbl>          <dbl>          <dbl>          <dbl>
#>  1 Africa    Algeria          2449.          3014.          2551.          3247.
#>  2 Africa    Angola           3521.          3828.          4269.          5523.
#>  3 Africa    Benin            1063.           960.           949.          1036.
#>  4 Africa    Botswa…           851.           918.           984.          1215.
#>  5 Africa    Burkin…           543.           617.           723.           795.
#>  6 Africa    Burundi           339.           380.           355.           413.
#>  7 Africa    Camero…          1173.          1313.          1400.          1508.
#>  8 Africa    Centra…          1071.          1191.          1193.          1136.
#>  9 Africa    Chad             1179.          1308.          1390.          1197.
#> 10 Africa    Comoros          1103.          1211.          1407.          1876.
#> # … with 132 more rows, and 32 more variables: gdpPercap_1972 <dbl>,
#> #   gdpPercap_1977 <dbl>, gdpPercap_1982 <dbl>, gdpPercap_1987 <dbl>,
#> #   gdpPercap_1992 <dbl>, gdpPercap_1997 <dbl>, gdpPercap_2002 <dbl>,
#> #   gdpPercap_2007 <dbl>, lifeExp_1952 <dbl>, lifeExp_1957 <dbl>,
#> #   lifeExp_1962 <dbl>, lifeExp_1967 <dbl>, lifeExp_1972 <dbl>,
#> #   lifeExp_1977 <dbl>, lifeExp_1982 <dbl>, lifeExp_1987 <dbl>,
#> #   lifeExp_1992 <dbl>, lifeExp_1997 <dbl>, lifeExp_2002 <dbl>,
#> #   lifeExp_2007 <dbl>, pop_1952 <dbl>, pop_1957 <dbl>, pop_1962 <dbl>,
#> #   pop_1967 <dbl>, pop_1972 <dbl>, pop_1977 <dbl>, pop_1982 <dbl>,
…
This messy dataset is hard to work with but not impossible. Let’s study
the mean life expectancy through time.

Let’s focus on `continent` and all columns that `start_with()`
“lifeExp”:

    #> # A tibble: 142 x 13
    #>    continent lifeExp_1952 lifeExp_1957 lifeExp_1962 lifeExp_1967 lifeExp_1972
    #>    <chr>            <dbl>        <dbl>        <dbl>        <dbl>        <dbl>
    #>  1 Africa            43.1         45.7         48.3         51.4         54.5
    #>  2 Africa            30.0         32.0         34           36.0         37.9
    #>  3 Africa            38.2         40.4         42.6         44.9         47.0
    #>  4 Africa            47.6         49.6         51.5         53.3         56.0
    #>  5 Africa            32.0         34.9         37.8         40.7         43.6
    #>  6 Africa            39.0         40.5         42.0         43.5         44.1
    #>  7 Africa            38.5         40.4         42.6         44.8         47.0
    #>  8 Africa            35.5         37.5         39.5         41.5         43.5
    #>  9 Africa            38.1         39.9         41.7         43.6         45.6
    #> 10 Africa            40.7         42.5         44.5         46.5         48.9
    #> # … with 132 more rows, and 7 more variables: lifeExp_1977 <dbl>,
    #> #   lifeExp_1982 <dbl>, lifeExp_1987 <dbl>, lifeExp_1992 <dbl>,
    #> #   lifeExp_1997 <dbl>, lifeExp_2002 <dbl>, lifeExp_2007 <dbl>

The prefix “lifeExp” is redundant and we could remove it.

``` r
remove_prefix <- function(.x) str_replace(.x, "lifeExp_", "")

life_exp1 <- life_exp %>% 
  rename_with(remove_prefix)

# Same with the `~` shortcut, like in `map()` and friends
life_exp1 <- life_exp %>% 
  rename_with(~str_replace(.x, "lifeExp_", ""))

life_exp1
#> # A tibble: 142 x 13
#>    continent `1952` `1957` `1962` `1967` `1972` `1977` `1982` `1987` `1992`
#>    <chr>      <dbl>  <dbl>  <dbl>  <dbl>  <dbl>  <dbl>  <dbl>  <dbl>  <dbl>
#>  1 Africa      43.1   45.7   48.3   51.4   54.5   58.0   61.4   65.8   67.7
#>  2 Africa      30.0   32.0   34     36.0   37.9   39.5   39.9   39.9   40.6
#>  3 Africa      38.2   40.4   42.6   44.9   47.0   49.2   50.9   52.3   53.9
#>  4 Africa      47.6   49.6   51.5   53.3   56.0   59.3   61.5   63.6   62.7
#>  5 Africa      32.0   34.9   37.8   40.7   43.6   46.1   48.1   49.6   50.3
#>  6 Africa      39.0   40.5   42.0   43.5   44.1   45.9   47.5   48.2   44.7
#>  7 Africa      38.5   40.4   42.6   44.8   47.0   49.4   53.0   55.0   54.3
#>  8 Africa      35.5   37.5   39.5   41.5   43.5   46.8   48.3   50.5   49.4
#>  9 Africa      38.1   39.9   41.7   43.6   45.6   47.4   49.5   51.1   51.7
#> 10 Africa      40.7   42.5   44.5   46.5   48.9   50.9   52.9   54.9   57.9
#> # … with 132 more rows, and 3 more variables: `1997` <dbl>, `2002` <dbl>,
#> #   `2007` <dbl>
```
…
