…
Import `wide` data from data-raw/.

``` r
wide <- vroom(here("data-raw", "gap_wide.csv"))

wide
#> # A tibble: 142 x 38
#>    continent country gdpPercap_1952 gdpPercap_1957 gdpPercap_1962 gdpPercap_1967
#>    <chr>     <chr>            <dbl>          <dbl>          <dbl>          <dbl>
#>  1 Africa    Algeria          2449.          3014.          2551.          3247.
#>  2 Africa    Angola           3521.          3828.          4269.          5523.
#>  3 Africa    Benin            1063.           960.           949.          1036.
#>  4 Africa    Botswa…           851.           918.           984.          1215.
#>  5 Africa    Burkin…           543.           617.           723.           795.
#>  6 Africa    Burundi           339.           380.           355.           413.
#>  7 Africa    Camero…          1173.          1313.          1400.          1508.
#>  8 Africa    Centra…          1071.          1191.          1193.          1136.
#>  9 Africa    Chad             1179.          1308.          1390.          1197.
#> 10 Africa    Comoros          1103.          1211.          1407.          1876.
#> # … with 132 more rows, and 32 more variables: gdpPercap_1972 <dbl>,
#> #   gdpPercap_1977 <dbl>, gdpPercap_1982 <dbl>, gdpPercap_1987 <dbl>,
#> #   gdpPercap_1992 <dbl>, gdpPercap_1997 <dbl>, gdpPercap_2002 <dbl>,
#> #   gdpPercap_2007 <dbl>, lifeExp_1952 <dbl>, lifeExp_1957 <dbl>,
#> #   lifeExp_1962 <dbl>, lifeExp_1967 <dbl>, lifeExp_1972 <dbl>,
#> #   lifeExp_1977 <dbl>, lifeExp_1982 <dbl>, lifeExp_1987 <dbl>,
#> #   lifeExp_1992 <dbl>, lifeExp_1997 <dbl>, lifeExp_2002 <dbl>,
#> #   lifeExp_2007 <dbl>, pop_1952 <dbl>, pop_1957 <dbl>, pop_1962 <dbl>,
#> #   pop_1967 <dbl>, pop_1972 <dbl>, pop_1977 <dbl>, pop_1982 <dbl>,
…
``` r
# See files
dir_ls(by_continent_path)
#> /home/rstudio/tidy-ds/data/by-continent/africa.csv
#> /home/rstudio/tidy-ds/data/by-continent/americas.csv
#> /home/rstudio/tidy-ds/data/by-continent/asia.csv
#> /home/rstudio/tidy-ds/data/by-continent/europe.csv
#> /home/rstudio/tidy-ds/data/by-continent/oceania.csv

# Read them back as a single data frame
df <- dir_ls(by_continent_path) %>% vroom()

df
#> # A tibble: 142 x 38
#>    continent country gdpPercap_1952 gdpPercap_1957 gdpPercap_1962 gdpPercap_1967
#>    <chr>     <chr>            <dbl>          <dbl>          <dbl>          <dbl>
#>  1 Africa    Algeria          2449.          3014.          2551.          3247.
#>  2 Africa    Angola           3521.          3828.          4269.          5523.
#>  3 Africa    Benin            1063.           960.           949.          1036.
#>  4 Africa    Botswa…           851.           918.           984.          1215.
#>  5 Africa    Burkin…           543.           617.           723.           795.
#>  6 Africa    Burundi           339.           380.           355.           413.
#>  7 Africa    Camero…          1173.          1313.          1400.          1508.
#>  8 Africa    Centra…          1071.          1191.          1193.          1136.
#>  9 Africa    Chad             1179.          1308.          1390.          1197.
#> 10 Africa    Comoros          1103.          1211.          1407.          1876.
#> # … with 132 more rows, and 32 more variables: gdpPercap_1972 <dbl>,
#> #   gdpPercap_1977 <dbl>, gdpPercap_1982 <dbl>, gdpPercap_1987 <dbl>,
#> #   gdpPercap_1992 <dbl>, gdpPercap_1997 <dbl>, gdpPercap_2002 <dbl>,
#> #   gdpPercap_2007 <dbl>, lifeExp_1952 <dbl>, lifeExp_1957 <dbl>,
#> #   lifeExp_1962 <dbl>, lifeExp_1967 <dbl>, lifeExp_1972 <dbl>,
#> #   lifeExp_1977 <dbl>, lifeExp_1982 <dbl>, lifeExp_1987 <dbl>,
#> #   lifeExp_1992 <dbl>, lifeExp_1997 <dbl>, lifeExp_2002 <dbl>,
#> #   lifeExp_2007 <dbl>, pop_1952 <dbl>, pop_1957 <dbl>, pop_1962 <dbl>,
#> #   pop_1967 <dbl>, pop_1972 <dbl>, pop_1977 <dbl>, pop_1982 <dbl>,
…
